^C:\USERS\ALEX\SOURCE\REPOS\PROJECT10\MAIN.CPP
C:\USERS\ALEX\SOURCE\REPOS\PROJECT10\DEBUG\VC142.PDB
C:\USERS\ALEX\SOURCE\REPOS\PROJECT10\DEBUG\VC142.IDB
C:\USERS\ALEX\SOURCE\REPOS\PROJECT10\DEBUG\MAIN.OBJ
